%YAML 1.1
%TAG !u! tag:unity3d.com,2011:
--- !u!114 &11400000
MonoBehaviour:
  m_ObjectHideFlags: 0
  m_PrefabParentObject: {fileID: 0}
  m_PrefabInternal: {fileID: 0}
  m_GameObject: {fileID: 0}
  m_Enabled: 1
  m_EditorHideFlags: 0
  m_Script: {fileID: 11500000, guid: 6c171a09b04bc48bfa5720cc30ec1342, type: 3}
  m_Name: Desk
  m_EditorClassIdentifier: 
  width: 4
  height: 4
  tiles: b0000000b1000000b2000000b3000000c0000000c1000000c2000000c3000000d0000000d1000000d2000000d3000000e0000000e1000000f0000000f0000000
  palettes: 05000000060000000500000005000000020000000200000005000000050000000200000002000000020000000200000002000000020000000200000002000000
  mat: {fileID: 2100000, guid: a00f37c3cdca64e80bb212b252eed267, type: 2}
