%YAML 1.1
%TAG !u! tag:unity3d.com,2011:
--- !u!114 &11400000
MonoBehaviour:
  m_ObjectHideFlags: 0
  m_PrefabParentObject: {fileID: 0}
  m_PrefabInternal: {fileID: 0}
  m_GameObject: {fileID: 0}
  m_Enabled: 1
  m_EditorHideFlags: 0
  m_Script: {fileID: 11500000, guid: 6c171a09b04bc48bfa5720cc30ec1342, type: 3}
  m_Name: Shelf
  m_EditorClassIdentifier: 
  width: 2
  height: 4
  tiles: a8000000b3000000b8000000b9000000c8000000c9000000d8000000d9000000
  palettes: 0500000005000000020000000200000002000000020000000200000002000000
  mat: {fileID: 2100000, guid: a00f37c3cdca64e80bb212b252eed267, type: 2}
