%YAML 1.1
%TAG !u! tag:unity3d.com,2011:
--- !u!114 &11400000
MonoBehaviour:
  m_ObjectHideFlags: 0
  m_PrefabParentObject: {fileID: 0}
  m_PrefabInternal: {fileID: 0}
  m_GameObject: {fileID: 0}
  m_Enabled: 1
  m_EditorHideFlags: 0
  m_Script: {fileID: 11500000, guid: 6c171a09b04bc48bfa5720cc30ec1342, type: 3}
  m_Name: Forest
  m_EditorClassIdentifier: 
  width: 4
  height: 4
  tiles: c0000000c4000000c5000000c1000000d3000000d4000000d5000000d6000000c5000000c1000000c0000000c4000000d5000000d6000000d3000000d4000000
  palettes: 01000000010000000100000001000000010000000100000001000000010000000100000001000000010000000100000001000000010000000100000001000000
  mat: {fileID: 2100000, guid: c9637f8094be94e7c852063c8f641def, type: 2}
