%YAML 1.1
%TAG !u! tag:unity3d.com,2011:
--- !u!114 &11400000
MonoBehaviour:
  m_ObjectHideFlags: 0
  m_PrefabParentObject: {fileID: 0}
  m_PrefabInternal: {fileID: 0}
  m_GameObject: {fileID: 0}
  m_Enabled: 1
  m_EditorHideFlags: 0
  m_Script: {fileID: 11500000, guid: 6c171a09b04bc48bfa5720cc30ec1342, type: 3}
  m_Name: House
  m_EditorClassIdentifier: 
  width: 8
  height: 4
  tiles: 80000000810000008200000082000000820000008200000085000000860000009000000091000000920000009200000092000000920000009500000096000000a0000000a1000000a2000000a3000000a4000000a4000000a5000000a6000000b0000000b1000000b2000000b3000000b1000000b1000000b1000000b6000000
  palettes: 0300000003000000030000000300000003000000030000000300000003000000030000000300000003000000030000000300000003000000030000000300000003000000040000000400000004000000040000000400000004000000030000000300000004000000040000000400000004000000040000000400000003000000
  mat: {fileID: 2100000, guid: c9637f8094be94e7c852063c8f641def, type: 2}
