%YAML 1.1
%TAG !u! tag:unity3d.com,2011:
--- !u!114 &11400000
MonoBehaviour:
  m_ObjectHideFlags: 0
  m_PrefabParentObject: {fileID: 0}
  m_PrefabInternal: {fileID: 0}
  m_GameObject: {fileID: 0}
  m_Enabled: 1
  m_EditorHideFlags: 0
  m_Script: {fileID: 11500000, guid: 6c171a09b04bc48bfa5720cc30ec1342, type: 3}
  m_Name: HouseRoofLowerLeft
  m_EditorClassIdentifier: 
  width: 2
  height: 2
  tiles: 9000000091000000a0000000a1000000
  palettes: 03000000040000000300000004000000
  mat: {fileID: 2100000, guid: c9637f8094be94e7c852063c8f641def, type: 2}
