%YAML 1.1
%TAG !u! tag:unity3d.com,2011:
--- !u!114 &11400000
MonoBehaviour:
  m_ObjectHideFlags: 0
  m_PrefabParentObject: {fileID: 0}
  m_PrefabInternal: {fileID: 0}
  m_GameObject: {fileID: 0}
  m_Enabled: 1
  m_EditorHideFlags: 0
  m_Script: {fileID: 11500000, guid: d8b96fe15e81b478c9f9681a3da5ecf6, type: 3}
  m_Name: CalvinWalkRight
  m_EditorClassIdentifier: 
  frames:
  - flipX: 0
    stamp: {fileID: 11400000, guid: 0a5752a46ce394a268a5abb210748b9e, type: 2}
  - flipX: 0
    stamp: {fileID: 11400000, guid: 064da399f34a74399b08b9ffbf490e24, type: 2}
  - flipX: 0
    stamp: {fileID: 11400000, guid: 0a5752a46ce394a268a5abb210748b9e, type: 2}
  - flipX: 0
    stamp: {fileID: 11400000, guid: 064da399f34a74399b08b9ffbf490e24, type: 2}
